<?xml version="1.0" encoding="UTF-8" standalone="no"?>
<svg
   xmlns:svg="http://www.w3.org/2000/svg"
   xmlns="http://www.w3.org/2000/svg"
   width="30"
   height="30"
   version="1.0">
	
<g>
	<circle cx="15" cy="15" r="9" style="stroke:#444444; stroke-width:2; fill:#E0E0E0;" />
	<path d="M 8,22 L 22,8" style="stroke:#444444; stroke-width:2;" />
</g>
</svg>