<?xml version="1.0" encoding="UTF-8" standalone="no"?>
<svg
   xmlns:svg="http://www.w3.org/2000/svg"
   xmlns="http://www.w3.org/2000/svg"
   width="30"
   height="30"
   version="1.0">
	
<g>
	<path d="M 24,5 L 11,24 L 5,18 L 10,15 L 11,19 L 24,5" 
		style="stroke:#444444; stroke-width:2; fill:#E0E0E0;" />
</g>
</svg>